<svg width="24" height="24" viewBox="0 0 24 24" fill="none" xmlns="http://www.w3.org/2000/svg">
<path fill-rule="evenodd" clip-rule="evenodd" d="M1.56068 0.499999C1.26779 0.207106 0.792913 0.207106 0.50002 0.499999C0.207127 0.792893 0.207127 1.26777 0.50002 1.56066L22.4394 23.5C22.7323 23.7929 23.2071 23.7929 23.5 23.5C23.7929 23.2071 23.7929 22.7322 23.5 22.4393L1.56068 0.499999ZM1.96968 7.20681C1.96968 6.95919 1.96968 5.7735 2.71559 4.48336L5.95833 7.72608C5.1451 8.14652 4.26216 8.38327 3.73439 8.38327C2.55794 8.38327 1.96968 7.79503 1.96968 7.20681ZM5.4991 10.3833H8.61549L9.02852 10.7963V13.9127H5.4991V10.3833ZM10.205 13.9127V11.9727L12.1449 13.9127H10.205ZM10.205 15.0891H13.3214L13.7344 15.5021V18.6186H10.205V15.0891ZM14.9108 18.6186V16.6786L16.8508 18.6186H14.9108ZM14.9108 19.795H18.0273L18.4403 20.208V23.3244H14.9108V19.795ZM18.4403 15.0891V16.6725L16.8569 15.0891H18.4403ZM18.4403 13.9127H15.6805L14.9108 13.143V10.3833H18.4403V13.9127ZM13.7344 10.3833V11.9666L12.1511 10.3833H13.7344ZM7.85201 5.4421C7.85201 5.63128 7.81819 5.81368 7.75642 5.98861L4.40248 2.63469C5.86678 1.56665 8.21236 0.73621 11.9697 0.73621C21.9697 0.73621 21.9697 6.61856 21.9697 7.20681C21.9697 7.79503 21.3814 8.38327 20.205 8.38327C19.0285 8.38327 16.0874 7.20681 16.0874 5.4421C16.0874 4.03032 13.3422 3.67739 11.9697 3.67739C10.5971 3.67739 7.85201 4.03032 7.85201 5.4421ZM5.4991 15.0891H9.02852V18.6186H5.4991V15.0891ZM9.02852 19.795H5.4991V23.3244H9.02852V19.795ZM13.7344 19.795V23.3244H10.205V19.795H13.7344Z" fill="black"/>
</svg>
